﻿id_inscrit;id_classe;id_mention;nombre;date
1;1;1;0;2008_2009
2;1;2;604;2008_2009
3;1;3;947;2008_2009
4;1;4;147;2008_2009
5;1;5;2;2008_2009
6;2;1;0;2008_2009
7;2;2;103;2008_2009
8;2;3;188;2008_2009
9;2;4;55;2008_2009
10;2;5;2;2008_2009
11;2;1;0;2008_2009
12;3;2;31;2008_2009
13;3;3;230;2008_2009
14;3;4;80;2008_2009
15;3;5;8;2008_2009
16;3;1;0;2008_2009
17;4;2;0;2008_2009
18;4;3;20;2008_2009
19;4;4;2;2008_2009
20;4;5;0;2008_2009
21;4;1;0;2008_2009
22;5;2;3;2008_2009
23;5;3;44;2008_2009
24;5;4;47;2008_2009
25;5;5;1;2008_2009
26;1;1;0;2009_2010
27;1;2;370;2009_2010
28;1;3;1140;2009_2010
29;1;4;280;2009_2010
30;1;5;11;2009_2010
31;2;1;0;2009_2010
32;2;2;112;2009_2010
33;2;3;155;2009_2010
34;2;4;174;2009_2010
35;2;5;6;2009_2010
36;2;1;0;2009_2010
37;3;2;56;2009_2010
38;3;3;249;2009_2010
39;3;4;46;2009_2010
40;3;5;0;2009_2010
41;3;1;0;2009_2010
42;4;2;5;2009_2010
43;4;3;5;2009_2010
44;4;4;2;2009_2010
45;4;5;0;2009_2010
46;4;1;0;2009_2010
47;5;2;18;2009_2010
48;5;3;61;2009_2010
49;5;4;73;2009_2010
50;5;5;11;2009_2010
51;1;1;0;2010_2011
52;1;2;733;2010_2011
53;1;3;1045;2010_2011
54;1;4;116;2010_2011
55;1;5;7;2010_2011
56;2;1;0;2010_2011
57;2;2;141;2010_2011
58;2;3;235;2010_2011
59;2;4;111;2010_2011
60;2;5;36;2010_2011
61;2;1;0;2010_2011
62;3;2;71;2010_2011
63;3;3;324;2010_2011
64;3;4;62;2010_2011
65;3;5;0;2010_2011
66;3;1;0;2010_2011
67;4;2;2;2010_2011
68;4;3;30;2010_2011
69;4;4;19;2010_2011
70;4;5;11;2010_2011
71;4;1;0;2010_2011
72;5;2;60;2010_2011
73;5;3;228;2010_2011
74;5;4;91;2010_2011
75;5;5;27;2010_2011
76;1;1;17;2011_2012
77;1;2;1828;2011_2012
78;1;3;826;2011_2012
79;1;4;56;2011_2012
80;1;5;1;2011_2012
81;2;1;11;2011_2012
82;2;2;203;2011_2012
83;2;3;196;2011_2012
84;2;4;107;2011_2012
85;2;5;4;2011_2012
86;2;1;0;2011_2012
87;3;2;143;2011_2012
88;3;3;247;2011_2012
89;3;4;15;2011_2012
90;3;5;0;2011_2012
91;3;1;0;2011_2012
92;4;2;9;2011_2012
93;4;3;24;2011_2012
94;4;4;18;2011_2012
95;4;5;2;2011_2012
96;4;1;4;2011_2012
97;5;2;105;2011_2012
98;5;3;207;2011_2012
99;5;4;70;2011_2012
100;5;5;5;2011_2012
101;1;1;111;2012_2013
102;1;2;982;2012_2013
103;1;3;657;2012_2013
104;1;4;18;2012_2013
105;1;5;0;2012_2013
106;2;1;38;2012_2013
107;2;2;190;2012_2013
108;2;3;194;2012_2013
109;2;4;85;2012_2013
110;2;5;8;2012_2013
111;2;1;8;2012_2013
112;3;2;191;2012_2013
113;3;3;198;2012_2013
114;3;4;18;2012_2013
115;3;5;0;2012_2013
116;3;1;0;2012_2013
117;4;2;22;2012_2013
118;4;3;22;2012_2013
119;4;4;18;2012_2013
120;4;5;8;2012_2013
121;4;1;5;2012_2013
122;5;2;175;2012_2013
123;5;3;264;2012_2013
124;5;4;96;2012_2013
125;5;5;4;2012_2013
126;1;1;56;2013_2014
127;1;2;937;2013_2014
128;1;3;817;2013_2014
129;1;4;55;2013_2014
130;1;5;4;2013_2014
131;2;1;20;2013_2014
132;2;2;290;2013_2014
133;2;3;268;2013_2014
134;2;4;149;2013_2014
135;2;5;15;2013_2014
136;2;1;1;2013_2014
137;3;2;151;2013_2014
138;3;3;309;2013_2014
139;3;4;23;2013_2014
140;3;5;0;2013_2014
141;3;1;0;2013_2014
142;4;2;13;2013_2014
143;4;3;42;2013_2014
144;4;4;12;2013_2014
145;4;5;3;2013_2014
146;4;1;12;2013_2014
147;5;2;243;2013_2014
148;5;3;368;2013_2014
149;5;4;151;2013_2014
150;5;5;12;2013_2014
151;1;1;66;2014_2015
152;1;2;1003;2014_2015
153;1;3;735;2014_2015
154;1;4;48;2014_2015
155;1;5;0;2014_2015
156;2;1;24;2014_2015
157;2;2;292;2014_2015
158;2;3;248;2014_2015
159;2;4;127;2014_2015
160;2;5;17;2014_2015
161;2;1;1;2014_2015
162;3;2;179;2014_2015
163;3;3;315;2014_2015
164;3;4;24;2014_2015
165;3;5;1;2014_2015
166;3;1;1;2014_2015
167;4;2;17;2014_2015
168;4;3;23;2014_2015
169;4;4;17;2014_2015
170;4;5;4;2014_2015
171;4;1;9;2014_2015
172;5;2;326;2014_2015
173;5;3;380;2014_2015
174;5;4;253;2014_2015
175;5;5;9;2014_2015
176;1;1;0;2015_2016
177;1;2;1134;2015_2016
178;1;3;691;2015_2016
179;1;4;14;2015_2016
180;1;5;0;2015_2016
181;2;1;0;2015_2016
182;2;2;375;2015_2016
183;2;3;273;2015_2016
184;2;4;74;2015_2016
185;2;5;1;2015_2016
186;2;1;0;2015_2016
187;3;2;230;2015_2016
188;3;3;304;2015_2016
189;3;4;16;2015_2016
190;3;5;1;2015_2016
191;3;1;0;2015_2016
192;4;2;22;2015_2016
193;4;3;22;2015_2016
194;4;4;22;2015_2016
195;4;5;2;2015_2016
196;4;1;0;2015_2016
197;5;2;373;2015_2016
198;5;3;389;2015_2016
199;5;4;169;2015_2016
200;5;5;6;2015_2016
201;1;1;0;2016_2017
202;1;2;1344;2016_2017
203;1;3;522;2016_2017
204;1;4;16;2016_2017
205;1;5;0;2016_2017
206;2;1;0;2016_2017
207;2;2;377;2016_2017
208;2;3;297;2016_2017
209;2;4;49;2016_2017
210;2;5;6;2016_2017
211;2;1;0;2016_2017
212;3;2;221;2016_2017
213;3;3;301;2016_2017
214;3;4;32;2016_2017
215;3;5;1;2016_2017
216;3;1;0;2016_2017
217;4;2;25;2016_2017
218;4;3;26;2016_2017
219;4;4;11;2016_2017
220;4;5;0;2016_2017
221;4;1;0;2016_2017
222;5;2;399;2016_2017
223;5;3;465;2016_2017
224;5;4;148;2016_2017
225;5;5;5;2016_2017
226;1;1;0;2017_2018
227;1;2;1172;2017_2018
228;1;3;655;2017_2018
229;1;4;31;2017_2018
230;1;5;0;2017_2018
231;2;1;0;2017_2018
232;2;2;364;2017_2018
233;2;3;254;2017_2018
234;2;4;59;2017_2018
235;2;5;5;2017_2018
236;2;1;0;2017_2018
237;3;2;179;2017_2018
238;3;3;318;2017_2018
239;3;4;50;2017_2018
240;3;5;2;2017_2018
241;3;1;0;2017_2018
242;4;2;128;2017_2018
243;4;3;141;2017_2018
244;4;4;72;2017_2018
245;4;5;9;2017_2018
246;4;1;0;2017_2018
247;5;2;271;2017_2018
248;5;3;330;2017_2018
249;5;4;112;2017_2018
250;5;5;0;2017_2018
251;1;1;0;2018_2019
252;1;2;1444;2018_2019
253;1;3;444;2018_2019
254;1;4;0;2018_2019
255;1;5;0;2018_2019
256;2;1;0;2018_2019
257;2;2;370;2018_2019
258;2;3;275;2018_2019
259;2;4;38;2018_2019
260;2;5;0;2018_2019
261;2;1;0;2018_2019
262;3;2;144;2018_2019
263;3;3;378;2018_2019
264;3;4;68;2018_2019
265;3;5;3;2018_2019
266;3;1;0;2018_2019
267;4;2;173;2018_2019
268;4;3;119;2018_2019
269;4;4;77;2018_2019
270;4;5;14;2018_2019
271;4;1;0;2018_2019
272;5;2;356;2018_2019
273;5;3;352;2018_2019
274;5;4;85;2018_2019
275;5;5;0;2018_2019
